{
    "document": {
        "type": "APL",
        "version": "1.0",
        "theme": "dark",
        "import": [
            {
                "name": "alexa-layouts",
                "version": "1.0.0"
            }
        ],
        "resources": [
            {
                "description": "Stock color for the light theme",
                "colors": {
                    "colorTextPrimary": "#151920"
                }
            },
            {
                "description": "Stock color for the dark theme",
                "when": "${viewport.theme == 'dark'}",
                "colors": {
                    "colorTextPrimary": "#ffffff"
                }
            },
            {
                "description": "Standard font sizes",
                "dimensions": {
                    "textSizeBody": 30,
                    "textSizePrimary": 27,
                    "textSizeSecondary": 23,
                    "textSizeSecondaryHint": 25
                }
            },
            {
                "description": "Common spacing values",
                "dimensions": {
                    "spacingThin": 6,
                    "spacingSmall": 12,
                    "spacingMedium": 24,
                    "spacingLarge": 48,
                    "spacingExtraLarge": 72
                }
            },
            {
                "description": "Common margins and padding",
                "dimensions": {
                    "marginTop": 40,
                    "marginLeft": 60,
                    "marginRight": 60,
                    "marginBottom": 40
                }
            }
        ],
        "styles": {
            "textStyleBase": {
                "description": "Base font description; set color",
                "values": [
                    {
                        "color": "@colorTextPrimary"
                    }
                ]
            },
            "mixinLogoTitle": {
                "values": {
                    "fontWeight": "600",
                    "fontSize": "@textSizeBody"
                }
            },
            "mixinBody": {
                "values": {
                    "fontSize": "@textSizeBody"
                }
            },
            "mixinPrimary": {
                "values": {
                    "fontSize": "@textSizePrimary"
                }
            },
            "textStylePrimary": {
                "extend": [
                    "textStyleBase",
                    "mixinPrimary"
                ]
            },
            "textStyleBody": {
                "extend": [
                    "textStyleBase",
                    "mixinBody"
                ]
            },
            "textStyleLogoTitle": {
                "extend": [
                    "textStyleBase",
                    "mixinLogoTitle"
                ]
            }
        },
        "layouts": {},
        "mainTemplate": {
            "parameters": [
                "payload"
            ],
            "items": [
                {
                    "when": "${viewport.shape == 'round'}",
                    "type": "Container",
                    "direction": "column",
                    "width": "100vw",
                    "height": "100vh",
                    "items": [
                        {
                            "type": "Image",
                            "source": "${payload.data.bgSmallUrl}",
                            "scale": "best-fill",
                            "width": "100vw",
                            "height": "100vh",
                            "position": "absolute",
                            "overlayColor": "rgba(0, 0, 0, 0.3)"
                        },
                        {
                            "type": "ScrollView",
                            "width": "100vw",
                            "height": "100vh",
                            "item": [
                                {
                                    "type": "Container",
                                    "direction": "column",
                                    "alignItems": "center",
                                    "paddingLeft": 30,
                                    "paddingRight": 30,
                                    "paddingBottom": 200,
                                    "items": [
                                        {
                                            "type": "AlexaHeader",
                                            "headerAttributionImage": "${payload.data.logoUrl}",
                                            "headerSubtitle": "${payload.data.title}",
                                            "headerAttributionText": "${payload.data.title}"
                                        },
                                        {
                                            "type": "Text",
                                            "text": "${payload.data.title}",
                                            "style": "textStyleLogoTitle",
                                            "width": "100vw",
                                            "position": "absolute",
                                            "top": 120,
                                            "textAlign": "center"
                                        },
                                        {
                                            "type": "Text",
                                            "text": "${payload.data.text}",
                                            "paddingTop": 50,
                                            "style": "textStyleBody",
                                            "width": "80vw",
                                            "textAlign": "center"
                                        }
                                    ]
                                }
                            ]
                        }
                    ]
                },
                {
                    "type": "Container",
                    "width": "100vw",
                    "height": "100vh",
                    "items": [
                        {
                            "type": "Image",
                            "source": "${payload.data.bgLargeUrl}",
                            "scale": "best-fill",
                            "width": "100vw",
                            "height": "100vh",
                            "position": "absolute",
                            "overlayColor": "rgba(0, 0, 0, 0.4)"
                        },
                        {
                            "type": "AlexaHeader",
                            "headerTitle": "${payload.data.title}",
                            "headerAttributionImage": "${payload.data.logoUrl}"
                        },
                        {
                            "type": "Container",
                            "direction": "row",
                            "paddingLeft": 60,
                            "paddingRight": 60,
                            "grow": 1,
                            "items": [
                                {
                                    "type": "ScrollView",
                                    "height": "60vh",
                                    "shrink": 1,
                                    "item": [
                                        {
                                            "type": "Container",
                                            "items": [
                                                {
                                                    "type": "Text",
                                                    "text": "${payload.data.text}",
                                                    "paddingTop": "5vh",
                                                    "fontSize": "30px"
                                                }
                                            ]
                                        }
                                    ]
                                }
                            ]
                        }
                    ]
                }
            ]
        }
    },
    "datasources": {
        "data": {
            "bgSmallUrl": "https://d2o906d8ln7ui1.cloudfront.net/images/details_bt3.png",
            "bgLargeUrl": "https://d2o906d8ln7ui1.cloudfront.net/images/details_bt3.png",
            "title": "AppName",
            "text": "おやすみさんへほうこそ。ほげほげら。ほげほげら。",
            "logoUrl": "https://d2o906d8ln7ui1.cloudfront.net/images/cheeseskillicon.png"
        }
    }
}